<svg width="16" height="16" viewBox="0 0 24 24" fill="none" xmlns="http://www.w3.org/2000/svg">
<g>
<path d="M14.8447 21.0878L2.9122 9.1554C2.7112 8.9544 2.6505 8.65191 2.75977 8.38922C2.86852 8.12607 3.12488 7.95516 3.40941 7.95516C8.05304 7.95516 12.2237 5.376 14.2951 1.22471L14.7131 0.389114C14.8136 0.18666 15.0063 0.0453793 15.2292 0.00895738C15.4526 -0.0269489 15.6793 0.0463636 15.8391 0.206067L23.7941 8.16104C23.9538 8.32079 24.0271 8.54752 23.9912 8.77088C23.9547 8.99372 23.8135 9.18647 23.611 9.28702L22.7759 9.70458C18.624 11.7763 16.0449 15.947 16.0449 20.5906C16.0449 20.8752 15.874 21.1315 15.6108 21.2403C15.3482 21.3496 15.0457 21.2888 14.8447 21.0878V21.0878Z" fill="#4F5B62"/>
<path d="M6.39252 14.624L1.20041 19.8162C1.12321 19.8934 1.06494 19.9875 1.03049 20.091L0.0361271 23.0741C-0.0478729 23.3271 0.0176583 23.6053 0.206049 23.7937C0.39444 23.9821 0.672643 24.0476 0.925627 23.9636L3.90875 22.9693C4.01216 22.9348 4.10638 22.8765 4.18358 22.7993L9.37574 17.6072L6.39252 14.624Z" fill="#4F5B62"/>
</g>
</svg>
